{
  "type": "tab",
  "id": "f7dd074c.0822f8",
  "label": "Sheet 2",
  "flow": [
    {
      "id": "c84c45df.37b3b8",
      "type": "feedparse",
      "z": "f7dd074c.0822f8",
      "name": "cnn",
      "url": "http://rss.cnn.com/rss/edition.rss",
      "interval": 15,
      "x": 99,
      "y": 56,
      "wires": [
        []
      ]
    }
  ]
}